EESchema Schematic File Version 4
EELAYER 29 0
EELAYER END
$Descr A4 11693 8268
encoding utf-8
Sheet 1 1
Title ""
Date ""
Rev ""
Comp ""
Comment1 ""
Comment2 ""
Comment3 ""
Comment4 ""
$EndDescr
$Comp
L My_Library:UC3846 U1
U 1 1 5D3F0718
P 4400 3200
F 0 "U1" H 4400 3815 50  0000 C CNN
F 1 "UC3846" H 4400 3724 50  0000 C CNN
F 2 "Package_DIP:DIP-16_W7.62mm_LongPads" H 4400 3200 50  0001 C CNN
F 3 "" H 4400 3200 50  0001 C CNN
	1    4400 3200
	1    0    0    -1  
$EndComp
$Comp
L power:GND #PWR0101
U 1 1 5D3F0E64
P 4900 3650
F 0 "#PWR0101" H 4900 3400 50  0001 C CNN
F 1 "GND" H 4905 3477 50  0000 C CNN
F 2 "" H 4900 3650 50  0001 C CNN
F 3 "" H 4900 3650 50  0001 C CNN
	1    4900 3650
	1    0    0    -1  
$EndComp
Wire Wire Line
	4900 3650 4900 3550
Wire Wire Line
	4900 3550 4800 3550
Wire Wire Line
	4800 3250 4900 3250
Wire Wire Line
	4900 3250 4900 3550
Connection ~ 4900 3550
Text GLabel 4000 3550 0    50   Input ~ 0
REF
$Comp
L Device:R_POT RV2
U 1 1 5D3F142C
P 5250 3750
F 0 "RV2" H 5180 3704 50  0000 R CNN
F 1 "I_THR" H 5180 3795 50  0000 R CNN
F 2 "Potentiometer_THT:Potentiometer_Bourns_3296W_Vertical" H 5250 3750 50  0001 C CNN
F 3 "~" H 5250 3750 50  0001 C CNN
	1    5250 3750
	-1   0    0    1   
$EndComp
$Comp
L power:GND #PWR0102
U 1 1 5D3F2168
P 5250 3900
F 0 "#PWR0102" H 5250 3650 50  0001 C CNN
F 1 "GND" H 5255 3727 50  0000 C CNN
F 2 "" H 5250 3900 50  0001 C CNN
F 3 "" H 5250 3900 50  0001 C CNN
	1    5250 3900
	1    0    0    -1  
$EndComp
Text GLabel 5250 3600 1    50   Input ~ 0
REF
$Comp
L Connector:Conn_01x07_Male J1
U 1 1 5D3F2660
P 6550 3200
F 0 "J1" H 6522 3132 50  0000 R CNN
F 1 "HEADER" H 6522 3223 50  0000 R CNN
F 2 "Connector_PinSocket_2.54mm:PinSocket_1x07_P2.54mm_Vertical" H 6550 3200 50  0001 C CNN
F 3 "~" H 6550 3200 50  0001 C CNN
	1    6550 3200
	-1   0    0    1   
$EndComp
$Comp
L power:GND #PWR0103
U 1 1 5D3F3B69
P 6350 3500
F 0 "#PWR0103" H 6350 3250 50  0001 C CNN
F 1 "GND" H 6355 3327 50  0000 C CNN
F 2 "" H 6350 3500 50  0001 C CNN
F 3 "" H 6350 3500 50  0001 C CNN
	1    6350 3500
	1    0    0    -1  
$EndComp
Wire Wire Line
	5050 3350 4800 3350
Wire Wire Line
	5100 3750 5050 3750
Wire Wire Line
	5050 3750 5050 3350
Wire Wire Line
	4800 3050 5750 3050
Wire Wire Line
	5750 3050 5750 3300
Wire Wire Line
	5750 3300 6350 3300
Wire Wire Line
	6350 3200 5850 3200
Wire Wire Line
	5850 3200 5850 2950
Wire Wire Line
	5850 2950 4800 2950
Wire Wire Line
	4000 2850 3900 2850
Wire Wire Line
	3900 2850 3900 2450
Wire Wire Line
	3900 2450 6100 2450
Text GLabel 6200 2700 1    50   Input ~ 0
REF
Wire Wire Line
	6200 2700 6200 2900
Wire Wire Line
	6200 2900 6350 2900
$Comp
L Device:R R3
U 1 1 5D3F62A7
P 3600 3750
F 0 "R3" H 3670 3796 50  0000 L CNN
F 1 "RT" H 3670 3705 50  0000 L CNN
F 2 "Resistor_THT:R_Axial_DIN0204_L3.6mm_D1.6mm_P7.62mm_Horizontal" V 3530 3750 50  0001 C CNN
F 3 "~" H 3600 3750 50  0001 C CNN
	1    3600 3750
	1    0    0    -1  
$EndComp
$Comp
L power:GND #PWR0104
U 1 1 5D3F6A49
P 3600 3900
F 0 "#PWR0104" H 3600 3650 50  0001 C CNN
F 1 "GND" H 3605 3727 50  0000 C CNN
F 2 "" H 3600 3900 50  0001 C CNN
F 3 "" H 3600 3900 50  0001 C CNN
	1    3600 3900
	1    0    0    -1  
$EndComp
Wire Wire Line
	3600 3600 3600 3450
Wire Wire Line
	3600 3450 4000 3450
$Comp
L Device:C C1
U 1 1 5D3F72C4
P 3300 3750
F 0 "C1" H 3415 3796 50  0000 L CNN
F 1 "CT" H 3415 3705 50  0000 L CNN
F 2 "Capacitor_THT:C_Rect_L7.0mm_W2.0mm_P5.00mm" H 3338 3600 50  0001 C CNN
F 3 "~" H 3300 3750 50  0001 C CNN
	1    3300 3750
	1    0    0    -1  
$EndComp
Wire Wire Line
	3300 3600 3300 3350
Wire Wire Line
	3300 3350 4000 3350
$Comp
L power:GND #PWR0105
U 1 1 5D3F7D0A
P 3300 3900
F 0 "#PWR0105" H 3300 3650 50  0001 C CNN
F 1 "GND" H 3305 3727 50  0000 C CNN
F 2 "" H 3300 3900 50  0001 C CNN
F 3 "" H 3300 3900 50  0001 C CNN
	1    3300 3900
	1    0    0    -1  
$EndComp
Text GLabel 4200 4200 1    50   Input ~ 0
REF
$Comp
L Device:C C3
U 1 1 5D3F8072
P 4200 4450
F 0 "C3" H 4315 4496 50  0000 L CNN
F 1 "1u" H 4315 4405 50  0000 L CNN
F 2 "Capacitor_THT:C_Rect_L7.0mm_W2.0mm_P5.00mm" H 4238 4300 50  0001 C CNN
F 3 "~" H 4200 4450 50  0001 C CNN
	1    4200 4450
	1    0    0    -1  
$EndComp
$Comp
L power:GND #PWR0106
U 1 1 5D3F8672
P 4200 4600
F 0 "#PWR0106" H 4200 4350 50  0001 C CNN
F 1 "GND" H 4205 4427 50  0000 C CNN
F 2 "" H 4200 4600 50  0001 C CNN
F 3 "" H 4200 4600 50  0001 C CNN
	1    4200 4600
	1    0    0    -1  
$EndComp
Wire Wire Line
	4200 4300 4200 4200
$Comp
L power:GND #PWR0107
U 1 1 5D3F8F88
P 3000 3900
F 0 "#PWR0107" H 3000 3650 50  0001 C CNN
F 1 "GND" H 3005 3727 50  0000 C CNN
F 2 "" H 3000 3900 50  0001 C CNN
F 3 "" H 3000 3900 50  0001 C CNN
	1    3000 3900
	1    0    0    -1  
$EndComp
$Comp
L Device:R R1
U 1 1 5D3F9250
P 3000 3750
F 0 "R1" H 3070 3796 50  0000 L CNN
F 1 "10k" H 3070 3705 50  0000 L CNN
F 2 "Resistor_THT:R_Axial_DIN0204_L3.6mm_D1.6mm_P7.62mm_Horizontal" V 2930 3750 50  0001 C CNN
F 3 "~" H 3000 3750 50  0001 C CNN
	1    3000 3750
	1    0    0    -1  
$EndComp
Wire Wire Line
	4000 3150 3000 3150
Wire Wire Line
	3000 3150 3000 3600
$Comp
L Switch:SW_SPST SW1
U 1 1 5D3FA015
P 3000 2850
F 0 "SW1" V 2954 2948 50  0000 L CNN
F 1 "SD" V 3045 2948 50  0000 L CNN
F 2 "Connector_PinSocket_2.54mm:PinSocket_1x02_P2.54mm_Vertical" H 3000 2850 50  0001 C CNN
F 3 "~" H 3000 2850 50  0001 C CNN
	1    3000 2850
	0    1    1    0   
$EndComp
Text GLabel 3000 2550 1    50   Input ~ 0
REF
Wire Wire Line
	3000 2550 3000 2650
Wire Wire Line
	3000 3050 3000 3150
Connection ~ 3000 3150
$Comp
L Device:R_POT RV1
U 1 1 5D3FB250
P 3500 1850
F 0 "RV1" H 3431 1804 50  0000 R CNN
F 1 "V_THR" H 3431 1895 50  0000 R CNN
F 2 "Potentiometer_THT:Potentiometer_Bourns_3296W_Vertical" H 3500 1850 50  0001 C CNN
F 3 "~" H 3500 1850 50  0001 C CNN
	1    3500 1850
	1    0    0    1   
$EndComp
Text GLabel 3500 1650 1    50   Input ~ 0
REF
Wire Wire Line
	3500 1650 3500 1700
Wire Wire Line
	3750 2950 4000 2950
$Comp
L power:GND #PWR0108
U 1 1 5D3FD13D
P 3500 2000
F 0 "#PWR0108" H 3500 1750 50  0001 C CNN
F 1 "GND" H 3505 1827 50  0000 C CNN
F 2 "" H 3500 2000 50  0001 C CNN
F 3 "" H 3500 2000 50  0001 C CNN
	1    3500 2000
	1    0    0    -1  
$EndComp
Wire Wire Line
	3650 1850 3750 1850
Wire Wire Line
	3750 1850 3750 2300
$Comp
L Device:R R2
U 1 1 5D3FF045
P 3500 2800
F 0 "R2" H 3570 2846 50  0000 L CNN
F 1 "68k" H 3570 2755 50  0000 L CNN
F 2 "Resistor_THT:R_Axial_DIN0204_L3.6mm_D1.6mm_P7.62mm_Horizontal" V 3430 2800 50  0001 C CNN
F 3 "~" H 3500 2800 50  0001 C CNN
	1    3500 2800
	1    0    0    -1  
$EndComp
$Comp
L Device:C_Small C2
U 1 1 5D3FF99C
P 3500 2550
F 0 "C2" H 3592 2596 50  0000 L CNN
F 1 "10n" H 3592 2505 50  0000 L CNN
F 2 "Capacitor_THT:C_Rect_L7.0mm_W2.0mm_P5.00mm" H 3500 2550 50  0001 C CNN
F 3 "~" H 3500 2550 50  0001 C CNN
	1    3500 2550
	1    0    0    -1  
$EndComp
Wire Wire Line
	3500 2450 3500 2300
Wire Wire Line
	3500 2300 3750 2300
Connection ~ 3750 2300
Wire Wire Line
	3750 2300 3750 2950
Wire Wire Line
	4000 3050 3500 3050
Wire Wire Line
	3500 3050 3500 2950
$Comp
L Device:C C4
U 1 1 5D401334
P 6000 3900
F 0 "C4" H 6115 3946 50  0000 L CNN
F 1 "100n" H 6115 3855 50  0000 L CNN
F 2 "Capacitor_SMD:C_1206_3216Metric_Pad1.42x1.75mm_HandSolder" H 6038 3750 50  0001 C CNN
F 3 "~" H 6000 3900 50  0001 C CNN
	1    6000 3900
	1    0    0    -1  
$EndComp
$Comp
L power:GND #PWR0109
U 1 1 5D401A48
P 6000 4050
F 0 "#PWR0109" H 6000 3800 50  0001 C CNN
F 1 "GND" H 6005 3877 50  0000 C CNN
F 2 "" H 6000 4050 50  0001 C CNN
F 3 "" H 6000 4050 50  0001 C CNN
	1    6000 4050
	1    0    0    -1  
$EndComp
Wire Wire Line
	4800 2850 5000 2850
Wire Wire Line
	4800 3450 5000 3450
Wire Wire Line
	5000 3450 5000 2850
Connection ~ 5000 2850
Wire Wire Line
	5000 2850 6000 2850
Wire Wire Line
	6000 2850 6000 3400
Wire Wire Line
	6350 3400 6000 3400
Connection ~ 6000 3400
Wire Wire Line
	6000 3400 6000 3750
Wire Wire Line
	6250 3150 6250 3000
Wire Wire Line
	6250 3000 6350 3000
Wire Wire Line
	4800 3150 6250 3150
Wire Wire Line
	6100 3100 6350 3100
Wire Wire Line
	6100 2450 6100 3100
$EndSCHEMATC
