G04 #@! TF.GenerationSoftware,KiCad,Pcbnew,5.1.2-f72e74a~84~ubuntu19.04.1*
G04 #@! TF.CreationDate,2019-07-29T13:12:50+03:00*
G04 #@! TF.ProjectId,UC3846_Board,55433338-3436-45f4-926f-6172642e6b69,rev?*
G04 #@! TF.SameCoordinates,Original*
G04 #@! TF.FileFunction,Profile,NP*
%FSLAX46Y46*%
G04 Gerber Fmt 4.6, Leading zero omitted, Abs format (unit mm)*
G04 Created by KiCad (PCBNEW 5.1.2-f72e74a~84~ubuntu19.04.1) date 2019-07-29 13:12:50*
%MOMM*%
%LPD*%
G04 APERTURE LIST*
%ADD10C,0.400000*%
G04 APERTURE END LIST*
D10*
X60325000Y-56515000D02*
X102235000Y-56515000D01*
X60325000Y-82550000D02*
X60325000Y-56515000D01*
X102235000Y-82550000D02*
X60325000Y-82550000D01*
X102235000Y-56515000D02*
X102235000Y-82550000D01*
M02*
